Experiment_1_Raw_Data/sMDT_3400V_Event_040.csv

Record Length,1000,Points,-499.999998738E-9,-100.0000015E-3,,Record Length,1000,Points,-499.999998738E-9,-200.00000298E-3,,Record Length,1000,Points,-499.999998738E-9,1.1999999E-3,
Sample Interval,999.999967622E-12,s,-499.000009313E-9,100.0000015E-3,,Sample Interval,999.999967622E-12,s,-499.000009313E-9,-200.00000298E-3,,Sample Interval,999.999967622E-12,s,-499.000009313E-9,399.99998990E-6,
Trigger Point,500.000012879,Samples,-498.000019888E-9,-100.0000015E-3,,Trigger Point,500.000012879,Samples,-498.000019888E-9,-200.00000298E-3,,Trigger Point,500.000012879,Samples,-498.000019888E-9,399.99998990E-6,
,,,-496.999973620E-9,100.0000015E-3,,,,,-496.999973620E-9,-200.00000298E-3,,,,,-496.999973620E-9,1.1999999E-3,
,,,-495.999984196E-9,-100.0000015E-3,,,,,-495.999984196E-9,-200.00000298E-3,,,,,-495.999984196E-9,1.1999999E-3,
,,,-494.999994771E-9,100.0000015E-3,,,,,-494.999994771E-9,0.0,,,,,-494.999994771E-9,1.9999999E-3,
Source,Sample CH2,,-494.000005347E-9,-100.0000015E-3,,Source,Sample CH3,,-494.000005347E-9,-200.00000298E-3,,Source,Sample CH4,,-494.000005347E-9,2.79999990E-3,
Vertical Units,V,,-493.000015922E-9,100.0000015E-3,,Vertical Units,V,,-493.000015922E-9,-200.00000298E-3,,Vertical Units,V,,-493.000015922E-9,1.9999999E-3,
Vertical Scale,5.00000007,,-492.000026497E-9,-100.0000015E-3,,Vertical Scale,5.00000007,,-492.000026497E-9,-200.00000298E-3,,Vertical Scale,19.9999995E-3,,-492.000026497E-9,1.1999999E-3,
Vertical Offset,0,,-490.999980229E-9,100.0000015E-3,,Vertical Offset,0,,-490.999980229E-9,-200.00000298E-3,,Vertical Offset,0,,-490.999980229E-9,-399.99998990E-6,
Horizontal Units,s,,-489.999990805E-9,-100.0000015E-3,,Horizontal Units,s,,-489.999990805E-9,-200.00000298E-3,,Horizontal Units,s,,-489.999990805E-9,-2.79999990E-3,
Horizontal Scale,99.999997172E-9,,-489.000001380E-9,100.0000015E-3,,Horizontal Scale,99.999997172E-9,,-489.000001380E-9,0.0,,Horizontal Scale,99.999997172E-9,,-489.000001380E-9,-3.59999994E-3,
Pt Fmt,Y,,-488.000011956E-9,-100.0000015E-3,,Pt Fmt,Y,,-488.000011956E-9,-200.00000298E-3,,Pt Fmt,Y,,-488.000011956E-9,-2.79999990E-3,
Yzero,3.02000000,,-487.000022531E-9,100.0000015E-3,,Yzero,2.2800000,,-487.000022531E-9,0.0,,Yzero,900.000000000E-3,,-487.000022531E-9,-2.79999990E-3,
Probe Atten,1.000000,,-485.999976263E-9,-100.0000015E-3,,Probe Atten,1.000000,,-485.999976263E-9,-200.00000298E-3,,Probe Atten,1.000000,,-485.999976263E-9,-2.79999990E-3,
,,,-484.999986838E-9,100.0000015E-3,,,,,-484.999986838E-9,0.0,,,,,-484.999986838E-9,-2.79999990E-3,
Note,DPO2024B - 4:02:13 AM   12/20/2024,,-483.999997414E-9,-100.0000015E-3,,Note,DPO2024B - 4:02:13 AM   12/20/2024,,-483.999997414E-9,-200.00000298E-3,,Note,DPO2024B - 4:02:13 AM   12/20/2024,,-483.999997414E-9,-2.79999990E-3,
,,,-483.000007989E-9,100.0000015E-3,,,,,-483.000007989E-9,-200.00000298E-3,,,,,-483.000007989E-9,-2.79999990E-3,
,,,-482.000018565E-9,-100.0000015E-3,,,,,-482.000018565E-9,-200.00000298E-3,,,,,-482.000018565E-9,-2.79999990E-3,
,,,-480.999972297E-9,100.0000015E-3,,,,,-480.999972297E-9,-200.00000298E-3,,,,,-480.999972297E-9,-5.20000001E-3,
,,,-479.999982872E-9,-100.0000015E-3,,,,,-479.999982872E-9,-200.00000298E-3,,,,,-479.999982872E-9,-6.79999962E-3,
,,,-478.999993447E-9,100.0000015E-3,,,,,-478.999993447E-9,-200.00000298E-3,,,,,-478.999993447E-9,-7.599999662E-3,
,,,-478.000004023E-9,-100.0000015E-3,,,,,-478.000004023E-9,-200.00000298E-3,,,,,-478.000004023E-9,-7.599999662E-3,
,,,-477.000014598E-9,100.0000015E-3,,,,,-477.000014598E-9,-200.00000298E-3,,,,,-477.000014598E-9,-6.00000005E-3,
,,,-475.999996752E-9,-100.0000015E-3,,,,,-475.999996752E-9,-200.00000298E-3,,,,,-475.999996752E-9,-5.20000001E-3,
,,,-475.000007327E-9,100.0000015E-3,,,,,-475.000007327E-9,-200.00000298E-3,,,,,-475.000007327E-9,-4.39999998E-3,
,,,-473.999989481E-9,-100.0000015E-3,,,,,-473.999989481E-9,-200.00000298E-3,,,,,-473.999989481E-9,-3.59999994E-3,
,,,-473.000000056E-9,100.0000015E-3,,,,,-473.000000056E-9,-200.00000298E-3,,,,,-473.000000056E-9,-2.79999990E-3,
,,,-472.000010632E-9,-100.0000015E-3,,,,,-472.000010632E-9,-200.00000298E-3,,,,,-472.000010632E-9,-2.79999990E-3,
,,,-470.999992785E-9,100.0000015E-3,,,,,-470.999992785E-9,-200.00000298E-3,,,,,-470.999992785E-9,-3.59999994E-3,
,,,-470.000003361E-9,-100.0000015E-3,,,,,-470.000003361E-9,-200.00000298E-3,,,,,-470.000003361E-9,-4.39999998E-3,
,,,-468.999985515E-9,-100.0000015E-3,,,,,-468.999985515E-9,-200.00000298E-3,,,,,-468.999985515E-9,-4.39999998E-3,
,,,-467.999996090E-9,-100.0000015E-3,,,,,-467.999996090E-9,-200.00000298E-3,,,,,-467.999996090E-9,-3.59999994E-3,
,,,-467.000006665E-9,-100.0000015E-3,,,,,-467.000006665E-9,-200.00000298E-3,,,,,-467.000006665E-9,-3.59999994E-3,
,,,-465.999988819E-9,-100.0000015E-3,,,,,-465.999988819E-9,-200.00000298E-3,,,,,-465.999988819E-9,-1.9999999E-3,
,,,-464.999999394E-9,-100.0000015E-3,,,,,-464.999999394E-9,-200.00000298E-3,,,,,-464.999999394E-9,-1.9999999E-3,
,,,-464.000009970E-9,-100.0000015E-3,,,,,-464.000009970E-9,-200.00000298E-3,,,,,-464.000009970E-9,-399.99998990E-6,
,,,-462.999992124E-9,100.0000015E-3,,,,,-462.999992124E-9,-200.00000298E-3,,,,,-462.999992124E-9,399.99998990E-6,
,,,-462.000002699E-9,-100.0000015E-3,,,,,-462.000002699E-9,-200.00000298E-3,,,,,-462.000002699E-9,399.99998990E-6,
,,,-461.000013274E-9,100.0000015E-3,,,,,-461.000013274E-9,-200.00000298E-3,,,,,-461.000013274E-9,399.99998990E-6,
,,,-459.999995428E-9,-100.0000015E-3,,,,,-459.999995428E-9,-200.00000298E-3,,,,,-459.999995428E-9,399.99998990E-6,
,,,-459.000006003E-9,100.0000015E-3,,,,,-459.000006003E-9,0.0,,,,,-459.000006003E-9,-399.99998990E-6,
,,,-457.999988157E-9,-100.0000015E-3,,,,,-457.999988157E-9,-200.00000298E-3,,,,,-457.999988157E-9,-399.99998990E-6,
,,,-456.999998732E-9,100.0000015E-3,,,,,-456.999998732E-9,0.0,,,,,-456.999998732E-9,399.99998990E-6,
,,,-456.000009308E-9,-100.0000015E-3,,,,,-456.000009308E-9,-200.00000298E-3,,,,,-456.000009308E-9,1.1999999E-3,
,,,-454.999991462E-9,100.0000015E-3,,,,,-454.999991462E-9,0.0,,,,,-454.999991462E-9,1.9999999E-3,
,,,-454.000002037E-9,-100.0000015E-3,,,,,-454.000002037E-9,-200.00000298E-3,,,,,-454.000002037E-9,2.79999990E-3,
,,,-453.000012612E-9,100.0000015E-3,,,,,-453.000012612E-9,0.0,,,,,-453.000012612E-9,2.79999990E-3,
,,,-451.999994766E-9,-100.0000015E-3,,,,,-451.999994766E-9,-200.00000298E-3,,,,,-451.999994766E-9,2.79999990E-3,
,,,-451.000005341E-9,100.0000015E-3,,,,,-451.000005341E-9,-200.00000298E-3,,,,,-451.000005341E-9,2.79999990E-3,
,,,-449.999987495E-9,-100.0000015E-3,,,,,-449.999987495E-9,-200.00000298E-3,,,,,-449.999987495E-9,1.1999999E-3,
,,,-448.999998071E-9,100.0000015E-3,,,,,-448.999998071E-9,-200.00000298E-3,,,,,-448.999998071E-9,-399.99998990E-6,
,,,-448.000008646E-9,-100.0000015E-3,,,,,-448.000008646E-9,-200.00000298E-3,,,,,-448.000008646E-9,399.99998990E-6,
,,,-446.999990800E-9,100.0000015E-3,,,,,-446.999990800E-9,-200.00000298E-3,,,,,-446.999990800E-9,1.1999999E-3,
,,,-446.000001375E-9,-100.0000015E-3,,,,,-446.000001375E-9,-200.00000298E-3,,,,,-446.000001375E-9,1.1999999E-3,
,,,-445.000011950E-9,100.0000015E-3,,,,,-445.000011950E-9,0.0,,,,,-445.000011950E-9,1.1999999E-3,
,,,-443.999994104E-9,-100.0000015E-3,,,,,-443.999994104E-9,-200.00000298E-3,,,,,-443.999994104E-9,1.9999999E-3,
,,,-443.000004680E-9,100.0000015E-3,,,,,-443.000004680E-9,-200.00000298E-3,,,,,-443.000004680E-9,1.1999999E-3,
,,,-441.999986833E-9,-100.0000015E-3,,,,,-441.999986833E-9,-200.00000298E-3,,,,,-441.999986833E-9,1.1999999E-3,
,,,-440.999997409E-9,100.0000015E-3,,,,,-440.999997409E-9,-200.00000298E-3,,,,,-440.999997409E-9,-399.99998990E-6,
,,,-440.000007984E-9,-100.0000015E-3,,,,,-440.000007984E-9,-200.00000298E-3,,,,,-440.000007984E-9,-399.99998990E-6,
,,,-438.999990138E-9,100.0000015E-3,,,,,-438.999990138E-9,-200.00000298E-3,,,,,-438.999990138E-9,-1.9999999E-3,
,,,-438.000000713E-9,-100.0000015E-3,,,,,-438.000000713E-9,-200.00000298E-3,,,,,-438.000000713E-9,-2.79999990E-3,
,,,-437.000011289E-9,100.0000015E-3,,,,,-437.000011289E-9,-200.00000298E-3,,,,,-437.000011289E-9,-2.79999990E-3,
,,,-435.999993442E-9,-100.0000015E-3,,,,,-435.999993442E-9,-200.00000298E-3,,,,,-435.999993442E-9,-1.9999999E-3,
,,,-435.000004018E-9,-100.0000015E-3,,,,,-435.000004018E-9,-200.00000298E-3,,,,,-435.000004018E-9,-1.9999999E-3,
,,,-434.000014593E-9,-100.0000015E-3,,,,,-434.000014593E-9,-200.00000298E-3,,,,,-434.000014593E-9,-1.1999999E-3,
,,,-432.999996747E-9,100.0000015E-3,,,,,-432.999996747E-9,-200.00000298E-3,,,,,-432.999996747E-9,-1.1999999E-3,
,,,-432.000007322E-9,-100.0000015E-3,,,,,-432.000007322E-9,-200.00000298E-3,,,,,-432.000007322E-9,-1.1999999E-3,
,,,-430.999989476E-9,100.0000015E-3,,,,,-430.999989476E-9,-200.00000298E-3,,,,,-430.999989476E-9,-2.79999990E-3,
,,,-430.000000051E-9,-100.0000015E-3,,,,,-430.000000051E-9,-200.00000298E-3,,,,,-430.000000051E-9,-4.39999998E-3,
,,,-429.000010627E-9,100.0000015E-3,,,,,-429.000010627E-9,-200.00000298E-3,,,,,-429.000010627E-9,-4.39999998E-3,
,,,-427.999992780E-9,-100.0000015E-3,,,,,-427.999992780E-9,-200.00000298E-3,,,,,-427.999992780E-9,-4.39999998E-3,
,,,-427.000003356E-9,100.0000015E-3,,,,,-427.000003356E-9,-200.00000298E-3,,,,,-427.000003356E-9,-4.39999998E-3,
,,,-426.000013931E-9,-100.0000015E-3,,,,,-426.000013931E-9,-200.00000298E-3,,,,,-426.000013931E-9,-4.39999998E-3,
,,,-424.999996085E-9,100.0000015E-3,,,,,-424.999996085E-9,-200.00000298E-3,,,,,-424.999996085E-9,-3.59999994E-3,
,,,-424.000006660E-9,-100.0000015E-3,,,,,-424.000006660E-9,-200.00000298E-3,,,,,-424.000006660E-9,-3.59999994E-3,
,,,-422.999988814E-9,100.0000015E-3,,,,,-422.999988814E-9,0.0,,,,,-422.999988814E-9,-2.79999990E-3,
,,,-421.999999389E-9,-100.0000015E-3,,,,,-421.999999389E-9,-200.00000298E-3,,,,,-421.999999389E-9,-2.79999990E-3,
,,,-421.000009965E-9,100.0000015E-3,,,,,-421.000009965E-9,-200.00000298E-3,,,,,-421.000009965E-9,-4.39999998E-3,
,,,-419.999992118E-9,-100.0000015E-3,,,,,-419.999992118E-9,-200.00000298E-3,,,,,-419.999992118E-9,-6.00000005E-3,
,,,-419.000002694E-9,100.0000015E-3,,,,,-419.000002694E-9,-200.00000298E-3,,,,,-419.000002694E-9,-6.00000005E-3,
,,,-418.000013269E-9,-100.0000015E-3,,,,,-418.000013269E-9,-200.00000298E-3,,,,,-418.000013269E-9,-4.39999998E-3,
,,,-416.999995423E-9,100.0000015E-3,,,,,-416.999995423E-9,-200.00000298E-3,,,,,-416.999995423E-9,-3.59999994E-3,
,,,-416.000005998E-9,-100.0000015E-3,,,,,-416.000005998E-9,-200.00000298E-3,,,,,-416.000005998E-9,-3.59999994E-3,
,,,-414.999988152E-9,100.0000015E-3,,,,,-414.999988152E-9,-200.00000298E-3,,,,,-414.999988152E-9,-2.79999990E-3,
,,,-413.999998727E-9,-100.0000015E-3,,,,,-413.999998727E-9,-200.00000298E-3,,,,,-413.999998727E-9,-399.99998990E-6,
,,,-413.000009303E-9,100.0000015E-3,,,,,-413.000009303E-9,-200.00000298E-3,,,,,-413.000009303E-9,-399.99998990E-6,
,,,-411.999991456E-9,-100.0000015E-3,,,,,-411.999991456E-9,-200.00000298E-3,,,,,-411.999991456E-9,-399.99998990E-6,
,,,-411.000002032E-9,100.0000015E-3,,,,,-411.000002032E-9,0.0,,,,,-411.000002032E-9,399.99998990E-6,
,,,-410.000012607E-9,-100.0000015E-3,,,,,-410.000012607E-9,-200.00000298E-3,,,,,-410.000012607E-9,-399.99998990E-6,
,,,-408.999994761E-9,100.0000015E-3,,,,,-408.999994761E-9,-200.00000298E-3,,,,,-408.999994761E-9,-1.1999999E-3,
,,,-408.000005336E-9,-100.0000015E-3,,,,,-408.000005336E-9,-200.00000298E-3,,,,,-408.000005336E-9,-1.9999999E-3,
,,,-406.999987490E-9,100.0000015E-3,,,,,-406.999987490E-9,0.0,,,,,-406.999987490E-9,-1.1999999E-3,
,,,-405.999998065E-9,-100.0000015E-3,,,,,-405.999998065E-9,-200.00000298E-3,,,,,-405.999998065E-9,-399.99998990E-6,
,,,-405.000008641E-9,100.0000015E-3,,,,,-405.000008641E-9,0.0,,,,,-405.000008641E-9,1.1999999E-3,
,,,-403.999990795E-9,-100.0000015E-3,,,,,-403.999990795E-9,0.0,,,,,-403.999990795E-9,2.79999990E-3,
,,,-403.00000137E-9,100.0000015E-3,,,,,-403.00000137E-9,0.0,,,,,-403.00000137E-9,3.59999994E-3,
,,,-402.00001195E-9,-100.0000015E-3,,,,,-402.00001195E-9,0.0,,,,,-402.00001195E-9,2.79999990E-3,
,,,-400.99999410E-9,100.0000015E-3,,,,,-400.99999410E-9,0.0,,,,,-400.99999410E-9,1.9999999E-3,
,,,-400.00000467E-9,-100.0000015E-3,,,,,-400.00000467E-9,-200.00000298E-3,,,,,-400.00000467E-9,1.1999999E-3,
,,,-399.00001525E-9,100.0000015E-3,,,,,-399.00001525E-9,-200.00000298E-3,,,,,-399.00001525E-9,1.9999999E-3,
,,,-397.99999740E-9,-100.0000015E-3,,,,,-397.99999740E-9,-200.00000298E-3,,,,,-397.99999740E-9,1.1999999E-3,
,,,-397.00000798E-9,100.0000015E-3,,,,,-397.00000798E-9,-200.00000298E-3,,,,,-397.00000798E-9,399.99998990E-6,
,,,-395.99999013E-9,-100.0000015E-3,,,,,-395.99999013E-9,-200.00000298E-3,,,,,-395.99999013E-9,1.1999999E-3,
,,,-395.00000071E-9,100.0000015E-3,,,,,-395.00000071E-9,-200.00000298E-3,,,,,-395.00000071E-9,1.9999999E-3,
,,,-394.00001128E-9,-100.0000015E-3,,,,,-394.00001128E-9,-200.00000298E-3,,,,,-394.00001128E-9,1.1999999E-3,
,,,-392.99999344E-9,100.0000015E-3,,,,,-392.99999344E-9,-200.00000298E-3,,,,,-392.99999344E-9,1.9999999E-3,
,,,-392.00000401E-9,-100.0000015E-3,,,,,-392.00000401E-9,-200.00000298E-3,,,,,-392.00000401E-9,1.1999999E-3,
,,,-391.00001459E-9,100.0000015E-3,,,,,-391.00001459E-9,-200.00000298E-3,,,,,-391.00001459E-9,1.1999999E-3,
,,,-389.99999674E-9,-100.0000015E-3,,,,,-389.99999674E-9,-200.00000298E-3,,,,,-389.99999674E-9,-399.99998990E-6,
,,,-389.00000732E-9,100.0000015E-3,,,,,-389.00000732E-9,-200.00000298E-3,,,,,-389.00000732E-9,-1.9999999E-3,
,,,-387.99998947E-9,-100.0000015E-3,,,,,-387.99998947E-9,-200.00000298E-3,,,,,-387.99998947E-9,-2.79999990E-3,
,,,-387.00000005E-9,100.0000015E-3,,,,,-387.00000005E-9,0.0,,,,,-387.00000005E-9,-1.9999999E-3,
,,,-386.00001062E-9,-100.0000015E-3,,,,,-386.00001062E-9,0.0,,,,,-386.00001062E-9,-1.1999999E-3,
,,,-384.99999278E-9,100.0000015E-3,,,,,-384.99999278E-9,0.0,,,,,-384.99999278E-9,-1.1999999E-3,
,,,-384.00000335E-9,-100.0000015E-3,,,,,-384.00000335E-9,-200.00000298E-3,,,,,-384.00000335E-9,-1.1999999E-3,
,,,-383.00001393E-9,100.0000015E-3,,,,,-383.00001393E-9,-200.00000298E-3,,,,,-383.00001393E-9,-1.1999999E-3,
,,,-381.99999608E-9,-100.0000015E-3,,,,,-381.99999608E-9,-200.00000298E-3,,,,,-381.99999608E-9,-1.1999999E-3,
,,,-381.00000666E-9,100.0000015E-3,,,,,-381.00000666E-9,-200.00000298E-3,,,,,-381.00000666E-9,-2.79999990E-3,
,,,-379.99998881E-9,-100.0000015E-3,,,,,-379.99998881E-9,-200.00000298E-3,,,,,-379.99998881E-9,-4.39999998E-3,
,,,-378.99999938E-9,100.0000015E-3,,,,,-378.99999938E-9,-200.00000298E-3,,,,,-378.99999938E-9,-4.39999998E-3,
,,,-378.00000996E-9,100.0000015E-3,,,,,-378.00000996E-9,-200.00000298E-3,,,,,-378.00000996E-9,-5.20000001E-3,
,,,-376.99999211E-9,100.0000015E-3,,,,,-376.99999211E-9,-200.00000298E-3,,,,,-376.99999211E-9,-5.20000001E-3,
,,,-376.00000269E-9,100.0000015E-3,,,,,-376.00000269E-9,-200.00000298E-3,,,,,-376.00000269E-9,-3.59999994E-3,
,,,-375.00001326E-9,100.0000015E-3,,,,,-375.00001326E-9,-200.00000298E-3,,,,,-375.00001326E-9,-2.79999990E-3,
,,,-373.99999542E-9,-100.0000015E-3,,,,,-373.99999542E-9,0.0,,,,,-373.99999542E-9,-2.79999990E-3,
,,,-373.00000599E-9,100.0000015E-3,,,,,-373.00000599E-9,0.0,,,,,-373.00000599E-9,-2.79999990E-3,
,,,-371.99998815E-9,-100.0000015E-3,,,,,-371.99998815E-9,-200.00000298E-3,,,,,-371.99998815E-9,-2.79999990E-3,
,,,-370.99999872E-9,100.0000015E-3,,,,,-370.99999872E-9,0.0,,,,,-370.99999872E-9,-2.79999990E-3,
,,,-370.00000930E-9,-100.0000015E-3,,,,,-370.00000930E-9,-200.00000298E-3,,,,,-370.00000930E-9,-2.79999990E-3,
,,,-368.99999145E-9,100.0000015E-3,,,,,-368.99999145E-9,-200.00000298E-3,,,,,-368.99999145E-9,-3.59999994E-3,
,,,-368.00000203E-9,-100.0000015E-3,,,,,-368.00000203E-9,-200.00000298E-3,,,,,-368.00000203E-9,-4.39999998E-3,
,,,-367.00001260E-9,-100.0000015E-3,,,,,-367.00001260E-9,-200.00000298E-3,,,,,-367.00001260E-9,-2.79999990E-3,
,,,-365.99999476E-9,-100.0000015E-3,,,,,-365.99999476E-9,-200.00000298E-3,,,,,-365.99999476E-9,-1.9999999E-3,
,,,-365.00000533E-9,100.0000015E-3,,,,,-365.00000533E-9,-200.00000298E-3,,,,,-365.00000533E-9,-1.1999999E-3,
,,,-364.00001591E-9,-100.0000015E-3,,,,,-364.00001591E-9,-200.00000298E-3,,,,,-364.00001591E-9,-399.99998990E-6,
,,,-362.99999806E-9,100.0000015E-3,,,,,-362.99999806E-9,-200.00000298E-3,,,,,-362.99999806E-9,-399.99998990E-6,
,,,-362.00000864E-9,-100.0000015E-3,,,,,-362.00000864E-9,-200.00000298E-3,,,,,-362.00000864E-9,-1.1999999E-3,
,,,-360.99999079E-9,100.0000015E-3,,,,,-360.99999079E-9,-200.00000298E-3,,,,,-360.99999079E-9,-1.1999999E-3,
,,,-360.00000136E-9,-100.0000015E-3,,,,,-360.00000136E-9,-200.00000298E-3,,,,,-360.00000136E-9,-1.1999999E-3,
,,,-359.00001194E-9,100.0000015E-3,,,,,-359.00001194E-9,-200.00000298E-3,,,,,-359.00001194E-9,-2.79999990E-3,
,,,-357.99999409E-9,-100.0000015E-3,,,,,-357.99999409E-9,-200.00000298E-3,,,,,-357.99999409E-9,-4.39999998E-3,
,,,-357.00000467E-9,100.0000015E-3,,,,,-357.00000467E-9,0.0,,,,,-357.00000467E-9,-2.79999990E-3,
,,,-356.00001524E-9,-100.0000015E-3,,,,,-356.00001524E-9,-200.00000298E-3,,,,,-356.00001524E-9,-399.99998990E-6,
,,,-354.99999740E-9,100.0000015E-3,,,,,-354.99999740E-9,-200.00000298E-3,,,,,-354.99999740E-9,399.99998990E-6,
,,,-354.00000797E-9,-100.0000015E-3,,,,,-354.00000797E-9,-200.00000298E-3,,,,,-354.00000797E-9,1.1999999E-3,
,,,-352.99999013E-9,100.0000015E-3,,,,,-352.99999013E-9,-200.00000298E-3,,,,,-352.99999013E-9,1.1999999E-3,
,,,-352.00000070E-9,-100.0000015E-3,,,,,-352.00000070E-9,-200.00000298E-3,,,,,-352.00000070E-9,1.1999999E-3,
,,,-351.00001128E-9,100.0000015E-3,,,,,-351.00001128E-9,-200.00000298E-3,,,,,-351.00001128E-9,399.99998990E-6,
,,,-349.99999343E-9,-100.0000015E-3,,,,,-349.99999343E-9,-200.00000298E-3,,,,,-349.99999343E-9,399.99998990E-6,
,,,-349.00000401E-9,100.0000015E-3,,,,,-349.00000401E-9,-200.00000298E-3,,,,,-349.00000401E-9,399.99998990E-6,
,,,-348.00001458E-9,-100.0000015E-3,,,,,-348.00001458E-9,-200.00000298E-3,,,,,-348.00001458E-9,399.99998990E-6,
,,,-346.99999674E-9,100.0000015E-3,,,,,-346.99999674E-9,-200.00000298E-3,,,,,-346.99999674E-9,399.99998990E-6,
,,,-346.00000731E-9,-100.0000015E-3,,,,,-346.00000731E-9,-200.00000298E-3,,,,,-346.00000731E-9,-399.99998990E-6,
,,,-344.99998947E-9,100.0000015E-3,,,,,-344.99998947E-9,-200.00000298E-3,,,,,-344.99998947E-9,399.99998990E-6,
,,,-344.00000004E-9,-100.0000015E-3,,,,,-344.00000004E-9,-200.00000298E-3,,,,,-344.00000004E-9,1.1999999E-3,
,,,-343.00001062E-9,-100.0000015E-3,,,,,-343.00001062E-9,-200.00000298E-3,,,,,-343.00001062E-9,399.99998990E-6,
,,,-341.99999277E-9,-100.0000015E-3,,,,,-341.99999277E-9,-200.00000298E-3,,,,,-341.99999277E-9,1.1999999E-3,
,,,-341.00000335E-9,100.0000015E-3,,,,,-341.00000335E-9,-200.00000298E-3,,,,,-341.00000335E-9,399.99998990E-6,
,,,-340.00001392E-9,-100.0000015E-3,,,,,-340.00001392E-9,-200.00000298E-3,,,,,-340.00001392E-9,-399.99998990E-6,
,,,-338.99999607E-9,100.0000015E-3,,,,,-338.99999607E-9,-200.00000298E-3,,,,,-338.99999607E-9,-1.9999999E-3,
,,,-338.00000665E-9,-100.0000015E-3,,,,,-338.00000665E-9,-200.00000298E-3,,,,,-338.00000665E-9,-1.1999999E-3,
,,,-337.00001723E-9,100.0000015E-3,,,,,-337.00001723E-9,-200.00000298E-3,,,,,-337.00001723E-9,-399.99998990E-6,
,,,-335.99999938E-9,-100.0000015E-3,,,,,-335.99999938E-9,-200.00000298E-3,,,,,-335.99999938E-9,399.99998990E-6,
,,,-335.00000995E-9,100.0000015E-3,,,,,-335.00000995E-9,0.0,,,,,-335.00000995E-9,399.99998990E-6,
,,,-333.99999211E-9,-100.0000015E-3,,,,,-333.99999211E-9,-200.00000298E-3,,,,,-333.99999211E-9,1.1999999E-3,
,,,-333.00000268E-9,100.0000015E-3,,,,,-333.00000268E-9,-200.00000298E-3,,,,,-333.00000268E-9,399.99998990E-6,
,,,-332.00001326E-9,-100.0000015E-3,,,,,-332.00001326E-9,-200.00000298E-3,,,,,-332.00001326E-9,-399.99998990E-6,
,,,-330.99999541E-9,100.0000015E-3,,,,,-330.99999541E-9,-200.00000298E-3,,,,,-330.99999541E-9,-1.1999999E-3,
,,,-330.00000599E-9,-100.0000015E-3,,,,,-330.00000599E-9,-200.00000298E-3,,,,,-330.00000599E-9,-2.79999990E-3,
,,,-329.00001656E-9,100.0000015E-3,,,,,-329.00001656E-9,-200.00000298E-3,,,,,-329.00001656E-9,-4.39999998E-3,
,,,-327.99999872E-9,-100.0000015E-3,,,,,-327.99999872E-9,-200.00000298E-3,,,,,-327.99999872E-9,-5.20000001E-3,
